{
    "request": {
        "method": "GET",
        "urlPathPattern": "/urldetails/.+"
    },
    "response": {
        "status": 400,
        "jsonBody": {
            "status": 400,
            "code": "INVALID_SHORT_URL_ID",
            "message": "Short URL ID '{{request.path.[1]}}' is not valid.",
            "details": "InvalidValueException"
        },
        "headers": {
            "Content-Type": "application/json",
            "Access-Control-Allow-Origin": "*",
            "Access-Control-Expose-Headers": "*"
        }
    },
    "priority": 3
}