{
    "request": {
        "method": "GET",
        "urlPathPattern": "/urldetails/[0-9A-Za-z]{10}/?"
    },
    "response": {
        "status": 404,
        "jsonBody": {
            "status": 404,
            "code": "SHORT_URL_NOT_FOUND_USING_SHORT_URL_ID",
            "message": "No Short URL has been found with ID '{{request.path.[1]}}'.",
            "details": "UrlDetailsNotFoundException"
        },
        "headers": {
            "Content-Type": "application/json",
            "Access-Control-Allow-Origin": "*",
            "Access-Control-Expose-Headers": "*"
        }
    },
    "priority": 2
}