{
    "request": {
        "method": "OPTIONS",
        "urlPathPattern": "/.*"
    },
    "response": {
        "status": 204,
        "headers": {
            "Content-Type": "application/json",
            "Access-Control-Allow-Origin": "*",
            "Access-Control-Allow-Headers": "*",
            "Access-Control-Expose-Headers": "*",
            "Access-Control-Max-Age": "0",
            "Access-Control-Allow-Methods": "GET,POST,DELETE,OPTIONS",
            "Allow": "GET,POST,DELETE,OPTIONS"
        }
    },
    "priority": 1
}